Structured            : Grid type (Structured vs. Unstructured)
0.5                   : Initial grid spacing (H0)
50000                 : Maximum allowed iterations
0                     : Create a submesh with given integer refinement factor
----------------------------------------------------------------
Bounding box:
-1.0e0                : xmin
 1.0e0                : xmax
-1.0e0                : ymin
 0.0e0                : ymax
----------------------------------------------------------------
0                     : Number of fixed points
----------------------------------------------------------------
Fixed points (x y):
-1.0e0   -1.0e0
 1.0e0   -1.0e0
-1.0e0    1.0e0
 1.0e0    1.0e0
